{
  "car": {
    "color": "blue",
    "price": "$20,000",
    "wheels": [
      "red",
      "black",
      "yellow",
      "white"
  ]
} 
}

# JSON PATH -  A query language that can parse data that is in the form of JSON format/ YAML format.
#
# To get details from the JSON file -
#
# If data is in the form of Dictionary.
#
# like info about car - 
#
# query - car
# to get details about color of car 
# query - car.color
# query - car.wheels
#
# The top element in JSON file is known as ROOT element (here it is dictionary) and denoted by $
# So to get values from JSON file wrtite query as - 
#
# $.car
# $.car.color
# $.car.wheels
# Format --->> {}(Root dictionary)(root for car dictionary) -->> car(root for color) -->> color
# We use dot next to root element in dictionary
#
#
# If Data is in form of Array/list
#

[
  "car",
  "bus",
  "bike",
  "truck"
]

# Here the root element is Array if i want to get 1st element from the array,
# JSON path query - $[0] - o/p -->> "car"
# To get 1st and 4th element 
# $[0,3]



# JSON Dictionary and List

{
  "car": {
    "color": "red",
    "price": "$30,000",
    "wheels": [
        {
            "model":"X678M",
            "size":16,
            "position": "front-right"
        },
        {
            "model":"XWr567",
            "size":16,
            "position": "front-left"
        },
        {
            "model":"X90EAM",
            "size":16,
            "position": "rear-right"
        },
        {
            "model":"X67UIM",
            "size":16,
            "position":"rear-left"
        },
    ]
} 
}


# Now to get the data from this JSON Format using JSON Path

# I want info about model name of second wheel of car

# -->> $.car.wheels[1].model


# Criteria and Condition

[
    12,
    13,
    34,
    45,
    35,
    90,
    89,
    76,
    43,
    7,
    65,
    34,
    92,
    86,
    56,
    21
]

# Now first Criteria is get all number greater than 40

# $[check if each numbers in array > 40]

# but thats not gonna happen so replace "check if" with ?()

# So,

# $[?(each item in array > 40)]

# Also replace "each item in array" with @

# So,

# query becomes like this --->> $[ ? ( @>40 ) ]

# here logic can be anything like --->> >,<,==,!=, 

# also @ in [40,43,45] -->> check if there are values that are either 40,43 or 45.

# also @ nin [40,43,45] -->> Above statement with neither 40,43 or 45.

# Now in above dictionary of a car To find model of rear-right wheel

# query -->> $.car.wheel[ ?( @.position == "rear-right" ) ].model
